…
* `runningtime`: a vector giving, for each *in silico* individual, the running time (in seconds) of the simulations (across all trials);

* `stochmodel`: a Julia proxy object, giving the stochastic model used for the simulation. You probably won't ever need to work with this object.

We are only interested in the `Simulation` data-frame.

If you try to load one of your simulation files and have a look at this data-frame, it should look something like this (note that I'm using `as_tibble()` to get a nicer visualisation of the data-frame):

```r
as_tibble(sim$Simulation)
```

``` r
# A tibble: 4,804 × 203
    time trial R1GCN1 P1GCN1 R4GCN2 P4GCN2 R5GCN2 P5GCN2 R6GCN1 P6GCN1 R2GCN2 P2GCN2 R7GCN2 P7GCN2 R5GCN1 P5GCN1 R3GCN1 P3GCN1 R4GCN1 P4GCN1 R3GCN2 P3GCN2
   <dbl> <dbl>  <dbl>  <dbl>  <dbl>  <dbl>  <dbl>  <dbl>  <dbl>  <dbl>  <dbl>  <dbl>  <dbl>  <dbl>  <dbl>  <dbl>  <dbl>  <dbl>  <dbl>  <dbl>  <dbl>  <dbl>
 1     0     1      0      0      0      0      0      0      0      0     10    100      0      0      0      0     50    500      0      0     50    500
 2     1     1      4      0      0      0      0      0      0      0     10      0      1      0      0      0     50    445      0      0     51    455
 3     2     1      7      0      0      0      0      0      0      0      9      0      2      0      0      0     51    444      0      0     52    457
 4     3     1     13      0      0      0      0      0      0      0     10      0      4      0      0      0     51    448      0      0     52    453
 5     4     1     21      1      0      0      0      0      0      0     10      0      6      0      0      0     51    447      0      0     53    452
 6     5     1     22      2      0      0      0      0      1      0     10      0      7      0      0      0     50    448      0      0     52    453
 7     6     1     24      0      0      0      0      0      1      0     10      0      7      0      0      0     50    446      0      0     52    454
 8     7     1     25      0      0      0      0      0      2      0     10      1      7      0      0      0     50    447      0      0     52    454
 9     8     1     28      1      0      0      0      0      2      0     10      0      7      0      0      0     51    446      0      0     51    456
10     9     1     34      0      0      0      0      0      2      0     10      0      7      0      0      0     50    445      0      0     51    457
# … with 4,794 more rows, and 181 more variables: R2GCN1 <dbl>, P2GCN1 <dbl>, R1GCN2 <dbl>, P1GCN2 <dbl>, R7GCN1 <dbl>, P7GCN1 <dbl>, R6GCN2 <dbl>,
#   P6GCN2 <dbl>, CTC1_P2GCN1_P2GCN1 <dbl>, CTC1_P2GCN1_P2GCN2 <dbl>, CTC1_P2GCN2_P2GCN1 <dbl>, CTC1_P2GCN2_P2GCN2 <dbl>, CTC5_P4GCN1_P4GCN1 <dbl>,
#   CTC5_P4GCN1_P4GCN2 <dbl>, CTC5_P4GCN2_P4GCN1 <dbl>, CTC5_P4GCN2_P4GCN2 <dbl>, CTC2_P1GCN1_P1GCN1 <dbl>, CTC2_P1GCN1_P1GCN2 <dbl>,
#   CTC2_P1GCN2_P1GCN1 <dbl>, CTC2_P1GCN2_P1GCN2 <dbl>, CTC6_P3GCN1_CTC5_P4GCN1_P4GCN1 <dbl>, CTC6_P3GCN1_CTC5_P4GCN1_P4GCN2 <dbl>,
#   CTC6_P3GCN1_CTC5_P4GCN2_P4GCN1 <dbl>, CTC6_P3GCN1_CTC5_P4GCN2_P4GCN2 <dbl>, CTC6_P3GCN2_CTC5_P4GCN1_P4GCN1 <dbl>,
#   CTC6_P3GCN2_CTC5_P4GCN1_P4GCN2 <dbl>, CTC6_P3GCN2_CTC5_P4GCN2_P4GCN1 <dbl>, CTC6_P3GCN2_CTC5_P4GCN2_P4GCN2 <dbl>,
#   CTC3_P3GCN1_CTC1_P2GCN1_P2GCN1 <dbl>, CTC3_P3GCN1_CTC1_P2GCN1_P2GCN2 <dbl>, CTC3_P3GCN1_CTC1_P2GCN2_P2GCN1 <dbl>, …
```
 
Notice that each species has a suffix on the form `GCN1` or `GCN2`. This is because sismonr tracks the allele of origin of each molecule. As we are simulating a diploid system, each gene is present in 2 copies (two alleles), and so the RNAs and proteins of a given gene can originate from either of these two alleles. This can be really handy when looking at the impact of mutations of different alleles. In this case however, we don't care about the allele of origin of the different species. Instead, we would rather have the abundance of all RNAs or proteins for a given gene into one column. To obtain that, we can use the sismonr function `mergeAlleleAbundance`:

```r
merged_simulation <- mergeAlleleAbundance(sim$Simulation)
```

```r
as_tibble(merged_simulation)
```

``` r
# A tibble: 4,804 × 27
    time trial Ind      R1    P1    R4    P4    R5    P5    R6    P6    R2    P2    R7    P7    R3    P3  CTC1  CTC5  CTC2  CTC6  CTC3  CTC7  CTC8  CTC4
   <dbl> <dbl> <chr> <dbl> <dbl> <dbl> <dbl> <dbl> <dbl> <dbl> <dbl> <dbl> <dbl> <dbl> <dbl> <dbl> <dbl> <dbl> <dbl> <dbl> <dbl> <dbl> <dbl> <dbl> <dbl>
 1     0     1 Ind1      0     0     0     0     0     0     0     0    20   200     0     0   100  1000     0     0     0     0     0     0     0     0
 2     1     1 Ind1     14     0     0     0     0     0     0     0    20     1     1     0   101   900     0     0     0     0   100     0     0     0
 3     2     1 Ind1     16     1     0     0     0     0     0     0    19     1     2     0   103   901     0     0     0     0   100     0     0     0
 4     3     1 Ind1     25     0     0     0     0     0     0     0    20     2     4     0   103   901     1     0     0     0    98     0     0     1
 5     4     1 Ind1     32     1     0     0     0     0     0     0    20     2     6     0   104   899     0     0     0     0    96     0     0     4
 6     5     1 Ind1     39     2     0     0     0     0     1     0    18     0     8     0   102   901     1     0     0     0    96     0     0     4
 7     6     1 Ind1     40     0     0     0     0     0     1     0    18     0     8     0   102   900     0     0     0     0    95     0     0     4
 8     7     1 Ind1     46     1     0     0     0     0     2     0    18     1     9     0   102   901     0     0     0     0    94     0     0     6
 9     8     1 Ind1     54     2     0     0     0     0     2     0    18     1    10     0   102   902     0     0     0     0    93     0     0     7
10     9     1 Ind1     65     0     0     0     0     0     3     0    18     1    10     0   101   902     0     0     0     0    90     0     0    10
# … with 4,794 more rows, and 2 more variables: CTC9 <dbl>, CTC10 <dbl>
```
…
* concatenate the returned data-frames into one data-frame.

```r
sim_df <- map_dfr(sim_files, read_simulation_results)
```

The resulting data-frame `sim_df` should have 1,201,000 rows:

```r
sim_df
```

```r
# A tibble: 1,201,000 × 27
    time trial Ind      R1    P1    R4    P4    R5    P5    R6    P6    R2    P2    R7    P7    R3    P3  CTC1  CTC5  CTC2  CTC6
   <dbl> <dbl> <chr> <dbl> <dbl> <dbl> <dbl> <dbl> <dbl> <dbl> <dbl> <dbl> <dbl> <dbl> <dbl> <dbl> <dbl> <dbl> <dbl> <dbl> <dbl>
 1     0     1 Ind1      0     0     0     0     0     0     0     0    20   200     0     0   100  1000     0     0     0     0
 2     1     1 Ind1     13     0     0     0     0     0     0     0    20     1     0     0    99   901     0     0     0     0
 3     2     1 Ind1     24     1     0     0     0     0     0     0    20     1     1     0    97   901     0     0     0     0
 4     3     1 Ind1     37     1     0     0     0     0     0     0    20     1     2     0    98   902     1     0     0     0
 5     4     1 Ind1     40     1     0     0     0     0     0     0    20     0     1     0    98   901     0     0     0     0
 6     5     1 Ind1     48     1     1     0     0     0     1     0    20     0     4     0   101   900     0     0     1     0
 7     6     1 Ind1     51     1     1     0     0     0     1     0    20     1     4     0   101   904     0     0     1     0
 8     7     1 Ind1     61     2     2     1     0     0     1     0    20     1     4     0   102   900     0     0     0     0
 9     8     1 Ind1     62     1     2     1     0     0     0     0    20     1     5     0   102   901     1     0     0     0
10     9     1 Ind1     60     3     3     1     0     0     0     0    20     0     5     0    99   900     1     0     0     0
# … with 1,200,990 more rows, and 6 more variables: CTC3 <dbl>, CTC7 <dbl>, CTC8 <dbl>, CTC4 <dbl>, CTC9 <dbl>, CTC10 <dbl>
# ℹ Use `print(n = ...)` to see more rows, and `colnames()` to see all variable names
```
…
